@startuml

(*) --> "Add element"

if "Is Array full" then
  if "" then
  --> [memory is not allocated at the brgining](*)
  else
    ->[memory is allocated at array creation]"Create temp buffer
    with capacity*CAPACITY_MLTIPLIER capacity"
    --> "Copy elements from original buffer
    in temp buffer"
    --> "dealocate memory from original buffer"
    --> "Make original buffer points to temp buffer"
    --> "Add element at position size++"
    --> "set new capacity and new size to Arraylist object"
    -->(*)
  endif
else

  ->[No] "Append item 
  after last added element"

  -->(*)

endif

@enduml



(*) --> "Add element"

if "Is Array full" then
  if "" then
  --> [memory is not allocated at the brgining](*)
  else
    ->[memory is allocated at array creation]"Create temp buffer
    with capacity*CAPACITY_MLTIPLIER capacity"
    --> "Copy elements from original buffer
    in temp buffer"
    --> "dealocate memory from original buffer"
    --> "Make original buffer points to temp buffer"
    --> "Add element at position size++"
    --> "set new capacity and new size to Arraylist object"
    -->(*)
  endif
else

  ->[No] "Append item 
  after last added element"

  -->(*)

endif
